<?xml version="1.0" encoding="utf-8"?>
<!-- Generator: Adobe Illustrator 16.0.0, SVG Export Plug-In . SVG Version: 6.00 Build 0)  -->
<!DOCTYPE svg PUBLIC "-//W3C//DTD SVG 1.1//EN" "http://www.w3.org/Graphics/SVG/1.1/DTD/svg11.dtd">
<svg version="1.1" id="kakaha_x5F_logo" xmlns="http://www.w3.org/2000/svg" xmlns:xlink="http://www.w3.org/1999/xlink" x="0px"
	 y="0px" width="500px" height="230px" viewBox="250 135 500 230" enable-background="new 250 135 500 230" xml:space="preserve">
<path id="a3" fill="#000222" d="M652.904,206.648h-28.681l-16.182,72.416l-3.171,14.287h17.59l3.195-15.587h23.971l3.277,15.587
	H672.5L652.904,206.648z M628.179,266.073l9.293-44.413l0.068,0.234l9.475,44.18L628.179,266.073L628.179,266.073z"/>
<path id="h" fill="#000222" d="M587.987,206.648v37.019h-21.433v-37.019h-18.997v79.446v0.282v6.975h18.997v-37.02h21.433v37.02
	h11.228l0,0h8.257v-41.604v-11.29v-33.81H587.987L587.987,206.648z"/>
<path id="a2" fill="#000222" d="M530,206.648h-28.681l-16.182,72.416l-3.17,14.287h17.588l3.195-15.588h23.971L530,293.352h19.596
	L530,206.648z M505.274,266.073l9.294-44.413l0.068,0.234l9.475,44.18L505.274,266.073L505.274,266.073z"/>
<path id="k2" fill="#000222" d="M477.679,249.405v-0.049l-2.231-4.086l23.478-33.717l3.372-4.905h-19.446l-25.47,37.511v-37.511
	h-19.484v80.487v-0.555v6.771h19.484v-26.318l5.923-7.866l18.875,34.185h11.687h6.479h1.29l-3.862-7.106L477.679,249.405z"/>
<path id="a1" fill="#000222" d="M419.98,206.648h-28.681l-16.181,72.416l-3.171,14.287h17.59l3.195-15.587h23.97l3.278,15.587
	h19.596L419.98,206.648z M395.255,266.073l9.294-44.413l0.068,0.234l9.475,44.18L395.255,266.073L395.255,266.073z"/>
<path id="k1" fill="#000222" d="M367.281,249.405v-0.049l-2.231-4.086l23.478-33.717l3.371-4.905h-19.444l-25.471,37.511v-37.511
	H327.5v80.487v-0.555v6.771h19.484v-26.318l5.923-7.866l18.875,34.185h11.686h6.478h1.291l-3.863-7.106L367.281,249.405z"/>
</svg>
